TestName,Comments,LigityVersion,input_dir,log_dir,log_testname,train_set,val_set,epoch,epochSave,checkpoints,epochValidate,earlyStop,earlyStopFactor,min_epochs,batchSize,rotations,learningRate,regl2,dataWorkers,weightInit,new_shape,convModule,convKSize,convStride,convPad,convDim,normalizationFn,normalizationList,convDropout,convDropoutList,in_channels,mpoolWindow,mpoolStride,mpoolPad,mpool,activation,activationList,FCdim,dropout,dropoutList,verbose
exp-2018-1D-b6-1,Instancenorm--1-6--Cdrop0-1-mid--lr0-0001,1,./Ligity_Output/Ligity1D1-6-2018-seed1,./tensorboard-runs/finalResults/2018/Ligity1D,exp-2018-1D-b6-1,Train,Validation,160,15,15,1,0,0.1,80,20,1,0.0001,0.001,2,0,98 98 54,2,5,1,2,64 128 256,instance,0 1 1 1,0 0 0.1 0,0 0 1 0,1,2,2,0,0 1 1 1,relu,1 1 1 1,1000 500 200 1,0.5 0.5 0.5 0,1 1 1 0,0
exp-2018-1D-b6-2,Instancenorm--1-6--Cdrop0-1-mid--lr0-0001,1,./Ligity_Output/Ligity1D1-6-2018-seed2,./tensorboard-runs/finalResults/2018/Ligity1D,exp-2018-1D-b6-2,Train,Validation,160,15,15,1,0,0.1,80,20,1,0.0001,0.001,2,0,98 98 54,2,5,1,2,64 128 256,instance,0 1 1 1,0 0 0.1 0,0 0 1 0,1,2,2,0,0 1 1 1,relu,1 1 1 1,1000 500 200 1,0.5 0.5 0.5 0,1 1 1 0,0
exp-2018-1D-b6-3,Instancenorm--1-6--Cdrop0-1-mid--lr0-0001,1,./Ligity_Output/Ligity1D1-6-2018-seed3,./tensorboard-runs/finalResults/2018/Ligity1D,exp-2018-1D-b6-3,Train,Validation,160,15,15,1,0,0.1,80,20,1,0.0001,0.001,2,0,98 98 54,2,5,1,2,64 128 256,instance,0 1 1 1,0 0 0.1 0,0 0 1 0,1,2,2,0,0 1 1 1,relu,1 1 1 1,1000 500 200 1,0.5 0.5 0.5 0,1 1 1 0,0
exp-2018-1D-b6-4,Instancenorm--1-6--Cdrop0-1-mid--lr0-0001,1,./Ligity_Output/Ligity1D1-6-2018-seed4,./tensorboard-runs/finalResults/2018/Ligity1D,exp-2018-1D-b6-4,Train,Validation,160,15,15,1,0,0.1,80,20,1,0.0001,0.001,2,0,98 98 54,2,5,1,2,64 128 256,instance,0 1 1 1,0 0 0.1 0,0 0 1 0,1,2,2,0,0 1 1 1,relu,1 1 1 1,1000 500 200 1,0.5 0.5 0.5 0,1 1 1 0,0
exp-2018-1D-b6-5,Instancenorm--1-6--Cdrop0-1-mid--lr0-0001,1,./Ligity_Output/Ligity1D1-6-2018-seed5,./tensorboard-runs/finalResults/2018/Ligity1D,exp-2018-1D-b6-5,Train,Validation,160,15,15,1,0,0.1,80,20,1,0.0001,0.001,2,0,98 98 54,2,5,1,2,64 128 256,instance,0 1 1 1,0 0 0.1 0,0 0 1 0,1,2,2,0,0 1 1 1,relu,1 1 1 1,1000 500 200 1,0.5 0.5 0.5 0,1 1 1 0,0
exp-2018-1D-b6-6,Instancenorm--1-6--Cdrop0-1-mid--lr0-0001,1,./Ligity_Output/Ligity1D1-6-2018-seed6,./tensorboard-runs/finalResults/2018/Ligity1D,exp-2018-1D-b6-6,Train,Validation,160,15,15,1,0,0.1,80,20,1,0.0001,0.001,2,0,98 98 54,2,5,1,2,64 128 256,instance,0 1 1 1,0 0 0.1 0,0 0 1 0,1,2,2,0,0 1 1 1,relu,1 1 1 1,1000 500 200 1,0.5 0.5 0.5 0,1 1 1 0,0
exp-2018-1D-b6-7,Instancenorm--1-6--Cdrop0-1-mid--lr0-0001,1,./Ligity_Output/Ligity1D1-6-2018-seed7,./tensorboard-runs/finalResults/2018/Ligity1D,exp-2018-1D-b6-7,Train,Validation,160,15,15,1,0,0.1,80,20,1,0.0001,0.001,2,0,98 98 54,2,5,1,2,64 128 256,instance,0 1 1 1,0 0 0.1 0,0 0 1 0,1,2,2,0,0 1 1 1,relu,1 1 1 1,1000 500 200 1,0.5 0.5 0.5 0,1 1 1 0,0
exp-2018-1D-b6-8,Instancenorm--1-6--Cdrop0-1-mid--lr0-0001,1,./Ligity_Output/Ligity1D1-6-2018-seed8,./tensorboard-runs/finalResults/2018/Ligity1D,exp-2018-1D-b6-8,Train,Validation,160,15,15,1,0,0.1,80,20,1,0.0001,0.001,2,0,98 98 54,2,5,1,2,64 128 256,instance,0 1 1 1,0 0 0.1 0,0 0 1 0,1,2,2,0,0 1 1 1,relu,1 1 1 1,1000 500 200 1,0.5 0.5 0.5 0,1 1 1 0,0
exp-2018-1D-b6-9,Instancenorm--1-6--Cdrop0-1-mid--lr0-0001,1,./Ligity_Output/Ligity1D1-6-2018-seed9,./tensorboard-runs/finalResults/2018/Ligity1D,exp-2018-1D-b6-9,Train,Validation,160,15,15,1,0,0.1,80,20,1,0.0001,0.001,2,0,98 98 54,2,5,1,2,64 128 256,instance,0 1 1 1,0 0 0.1 0,0 0 1 0,1,2,2,0,0 1 1 1,relu,1 1 1 1,1000 500 200 1,0.5 0.5 0.5 0,1 1 1 0,0
exp-2018-1D-b6-10,Instancenorm--1-6--Cdrop0-1-mid--lr0-0001,1,./Ligity_Output/Ligity1D1-6-2018-seed10,./tensorboard-runs/finalResults/2018/Ligity1D,exp-2018-1D-b6-10,Train,Validation,160,15,15,1,0,0.1,80,20,1,0.0001,0.001,2,0,98 98 54,2,5,1,2,64 128 256,instance,0 1 1 1,0 0 0.1 0,0 0 1 0,1,2,2,0,0 1 1 1,relu,1 1 1 1,1000 500 200 1,0.5 0.5 0.5 0,1 1 1 0,0
