TestName,Comments,LigityVersion,input_dir,log_dir,log_testname,train_set,val_set,epoch,epochSave,checkpoints,epochValidate,earlyStop,earlyStopFactor,min_epochs,batchSize,rotations,learningRate,regl2,dataWorkers,weightInit,new_shape,convModule,convKSize,convStride,convPad,convDim,normalizationFn,normalizationList,convDropout,convDropoutList,in_channels,mpoolWindow,mpoolStride,mpoolPad,mpool,activation,activationList,FCdim,dropout,dropoutList,verbose
exp-2016-1D-b5-9,Instancenorm--1-4--Cdrop0-1-mid,1,./Ligity_Output/Ligity1D1-4,./tensorboard-runs/finalResults/2016/Ligity1D,exp-2016-1D-b5-9,Train,Validation,140,15,15,1,0,0.1,80,20,1,1E-05,0.001,2,0,98 98 54,2,5,1,2,64 128 256,instance,0 1 1 1,0 0 0.1 0,0 0 1 0,1,2,2,0,0 1 1 1,relu,1 1 1 1,1000 500 200 1,0.5 0.5 0.5 0,1 1 1 0,0
exp-2016-1D-b5-10,Instancenorm--1-4--Cdrop0-1-mid--BS15,1,./Ligity_Output/Ligity1D1-4,./tensorboard-runs/finalResults/2016/Ligity1D,exp-2016-1D-b5-10,Train,Validation,140,15,15,1,0,0.1,80,15,1,1E-05,0.001,2,0,98 98 54,2,5,1,2,64 128 256,instance,0 1 1 1,0 0 0.1 0,0 0 1 0,1,2,2,0,0 1 1 1,relu,1 1 1 1,1000 500 200 1,0.5 0.5 0.5 0,1 1 1 0,0
