TestName,Comments,LigityVersion,input_dir,log_dir,log_testname,train_set,val_set,epoch,epochSave,checkpoints,epochValidate,earlyStop,earlyStopFactor,min_epochs,batchSize,rotations,learningRate,regl2,dataWorkers,weightInit,new_shape,convModule,convKSize,convStride,convPad,convDim,normalizationFn,normalizationList,convDropout,convDropoutList,in_channels,mpoolWindow,mpoolStride,mpoolPad,mpool,activation,activationList,FCdim,dropout,dropoutList,verbose
exp-2018-1D-b4b-1,Instancenorm--1-4,1,./Ligity_Output/Ligity1D1-4-2018,./tensorboard-runs/finalResults/2018/Ligity1D,exp-2018-1D-b4b-1,Train,Validation,160,15,15,1,0,0.1,80,20,1,0.0001,0.001,2,0,98 98 54,2,5,1,2,64 128 256,instance,0 1 1 1,0 0 0 0,0 0 0 0,1,2,2,0,0 1 1 1,relu,1 1 1 1,1000 500 200 1,0.5 0.5 0.5 0,1 1 1 0,0
exp-2018-1D-b4b-2,Instancenorm--1-4--Drop0-8,1,./Ligity_Output/Ligity1D1-4-2018,./tensorboard-runs/finalResults/2018/Ligity1D,exp-2018-1D-b4b-2,Train,Validation,160,15,15,1,0,0.1,80,20,1,0.0001,0.001,2,0,98 98 54,2,5,1,2,64 128 256,instance,0 1 1 1,0 0 0 0,0 0 0 0,1,2,2,0,0 1 1 1,relu,1 1 1 1,1000 500 200 1,0.8 0.8 0.5 0,1 1 1 0,0
exp-2018-1D-b4b-3,Instancenorm--1-6--Cdrop0-1-mid,1,./Ligity_Output/Ligity1D1-6-2018,./tensorboard-runs/finalResults/2018/Ligity1D,exp-2018-1D-b4b-3,Train,Validation,160,15,15,1,0,0.1,80,20,1,0.0001,0.001,2,0,98 98 54,2,5,1,2,64 128 256,instance,0 1 1 1,0 0 0.1 0,0 0 1 0,1,2,2,0,0 1 1 1,relu,1 1 1 1,1000 500 200 1,0.5 0.5 0.5 0,1 1 1 0,0
exp-2018-1D-b4b-4,Batchnorm--1-4,1,./Ligity_Output/Ligity1D1-4-2018,./tensorboard-runs/finalResults/2018/Ligity1D,exp-2018-1D-b4b-4,Train,Validation,160,15,15,1,0,0.1,80,20,1,0.0001,0.001,2,0,98 98 54,2,5,1,2,64 128 256,batch,0 1 1 1,0 0 0 0,0 0 0 0,1,2,2,0,0 1 1 1,relu,1 1 1 1,1000 500 200 1,0.5 0.5 0.5 0,1 1 1 0,0
exp-2018-1D-b4b-5,Instancenorm--1-4--BS15,1,./Ligity_Output/Ligity1D1-4-2018,./tensorboard-runs/finalResults/2018/Ligity1D,exp-2018-1D-b4b-5,Train,Validation,160,15,15,1,0,0.1,80,15,1,0.0001,0.001,2,0,98 98 54,2,5,1,2,64 128 256,instance,0 1 1 1,0 0 0 0,0 0 0 0,1,2,2,0,0 1 1 1,relu,1 1 1 1,1000 500 200 1,0.5 0.5 0.5 0,1 1 1 0,0
exp-2018-1D-b4b-6,Instancenorm--1-4--r4,1,./Ligity_Output/Ligity1D1-4-2018,./tensorboard-runs/finalResults/2018/Ligity1D,exp-2018-1D-b4b-6,Train,Validation,160,15,15,1,0,0.1,80,20,4,0.0001,0.001,2,0,98 98 54,2,5,1,2,64 128 256,instance,0 1 1 1,0 0 0 0,0 0 0 0,1,2,2,0,0 1 1 1,relu,1 1 1 1,1000 500 200 1,0.5 0.5 0.5 0,1 1 1 0,0
exp-2018-1D-b4b-7,Instancenorm--1-4--r8,1,./Ligity_Output/Ligity1D1-4-2018,./tensorboard-runs/finalResults/2018/Ligity1D,exp-2018-1D-b4b-7,Train,Validation,160,15,15,1,0,0.1,80,20,8,0.0001,0.001,2,0,98 98 54,2,5,1,2,64 128 256,instance,0 1 1 1,0 0 0 0,0 0 0 0,1,2,2,0,0 1 1 1,relu,1 1 1 1,1000 500 200 1,0.5 0.5 0.5 0,1 1 1 0,0
exp-2018-1D-b4b-8,Instancenorm--1-4--Cdrop0-1-all,1,./Ligity_Output/Ligity1D1-4-2018,./tensorboard-runs/finalResults/2018/Ligity1D,exp-2018-1D-b4b-8,Train,Validation,160,15,15,1,0,0.1,80,20,1,0.0001,0.001,2,0,98 98 54,2,5,1,2,64 128 256,instance,0 1 1 1,0 0.1 0.1 0.1,0 1 1 1,1,2,2,0,0 1 1 1,relu,1 1 1 1,1000 500 200 1,0.5 0.5 0.5 0,1 1 1 0,0
exp-2018-1D-b4b-9,Instancenorm--1-4--Cdrop0-2-all,1,./Ligity_Output/Ligity1D1-4-2018,./tensorboard-runs/finalResults/2018/Ligity1D,exp-2018-1D-b4b-9,Train,Validation,160,15,15,1,0,0.1,80,20,1,0.0001,0.001,2,0,98 98 54,2,5,1,2,64 128 256,instance,0 1 1 1,0 0.2 0.2 0.2,0 1 1 1,1,2,2,0,0 1 1 1,relu,1 1 1 1,1000 500 200 1,0.5 0.5 0.5 0,1 1 1 0,0
exp-2018-1D-b4b-10,Instancenorm--1-4--Cdrop0-1-mid,1,./Ligity_Output/Ligity1D1-4-2018,./tensorboard-runs/finalResults/2018/Ligity1D,exp-2018-1D-b4b-10,Train,Validation,160,15,15,1,0,0.1,80,20,1,0.0001,0.001,2,0,98 98 54,2,5,1,2,64 128 256,instance,0 1 1 1,0 0 0.1 0,0 0 1 0,1,2,2,0,0 1 1 1,relu,1 1 1 1,1000 500 200 1,0.5 0.5 0.5 0,1 1 1 0,0
exp-2018-1D-b4b-11,batchnorm--1-4--Cdrop0-1-mid,1,./Ligity_Output/Ligity1D1-4-2018,./tensorboard-runs/finalResults/2018/Ligity1D,exp-2018-1D-b4b-11,Train,Validation,160,15,15,1,0,0.1,80,20,1,0.0001,0.001,2,0,98 98 54,2,5,1,2,64 128 256,batch,0 1 1 1,0 0 0.1 0,0 0 1 0,1,2,2,0,0 1 1 1,relu,1 1 1 1,1000 500 200 1,0.5 0.5 0.5 0,1 1 1 0,0
exp-2018-1D-b4b-12,Instancenorm--1-4--Cdrop0-2-mid,1,./Ligity_Output/Ligity1D1-4-2018,./tensorboard-runs/finalResults/2018/Ligity1D,exp-2018-1D-b4b-12,Train,Validation,160,15,15,1,0,0.1,80,20,1,0.0001,0.001,2,0,98 98 54,2,5,1,2,64 128 256,instance,0 1 1 1,0 0 0.2 0,0 0 1 0,1,2,2,0,0 1 1 1,relu,1 1 1 1,1000 500 200 1,0.5 0.5 0.5 0,1 1 1 0,0
exp-2018-1D-b4b-13,Instancenorm--1-4--Cdrop0-1-all-r4,1,./Ligity_Output/Ligity1D1-4-2018,./tensorboard-runs/finalResults/2018/Ligity1D,exp-2018-1D-b4b-13,Train,Validation,160,15,15,1,0,0.1,80,20,4,0.0001,0.001,2,0,98 98 54,2,5,1,2,64 128 256,instance,0 1 1 1,0 0.1 0.1 0.1,0 1 1 1,1,2,2,0,0 1 1 1,relu,1 1 1 1,1000 500 200 1,0.5 0.5 0.5 0,1 1 1 0,0
exp-2018-1D-b4b-14,Instancenorm--1-4--Cdrop0-1-all-r8,1,./Ligity_Output/Ligity1D1-4-2018,./tensorboard-runs/finalResults/2018/Ligity1D,exp-2018-1D-b4b-14,Train,Validation,160,15,15,1,0,0.1,80,20,8,0.0001,0.001,2,0,98 98 54,2,5,1,2,64 128 256,instance,0 1 1 1,0 0.1 0.1 0.1,0 1 1 1,1,2,2,0,0 1 1 1,relu,1 1 1 1,1000 500 200 1,0.5 0.5 0.5 0,1 1 1 0,0
