TestName,Comments,LigityVersion,input_dir,log_dir,log_testname,train_set,val_set,epoch,epochSave,checkpoints,epochValidate,earlyStop,earlyStopFactor,min_epochs,batchSize,rotations,learningRate,regl2,dataWorkers,weightInit,new_shape,convModule,convKSize,convStride,convPad,convDim,normalizationFn,normalizationList,convDropout,convDropoutList,in_channels,mpoolWindow,mpoolStride,mpoolPad,mpool,activation,activationList,FCdim,dropout,dropoutList,verbose
exp-2016-3D-b5-1,batchnorm PIP Threshold 1-4,3,./Ligity_Output/Ligity3D1-4,./tensorboard-runs/finalResults/2016/Ligity3D,exp-2016-3D-b5-1,Train,Validation,60,10,10,1,0,0.1,40,20,1,1E-05,0.001,0,0,98 98 54,2,5,1,1,64 128 256 512,batch,0 1 1 1 1,0 0 0 0 0,0 0 0 0 0,54,2,2,0,0 1 1 1 1,relu,1 1 1 1 1,6000 2000 500 200 1,0.5 0.5 0.5 0.5 0,1 1 1 1 0,0
exp-2016-3D-b5-2,Instancenorm--1-4--Drop0-8,3,./Ligity_Output/Ligity3D1-4,./tensorboard-runs/finalResults/2016/Ligity3D,exp-2016-3D-b5-2,Train,Validation,60,10,10,1,0,0.1,40,20,1,1E-05,0.001,0,0,98 98 54,2,5,1,1,64 128 256 512,instance,0 1 1 1 1,0 0 0 0 0,0 0 0 0 0,54,2,2,0,0 1 1 1 1,relu,1 1 1 1 1,6000 2000 500 200 1,0.8 0.8 0.8 0.5 0,1 1 1 1 0,0
exp-2016-3D-b5-3,Instancenorm--1-4--BS15,3,./Ligity_Output/Ligity3D1-4,./tensorboard-runs/finalResults/2016/Ligity3D,exp-2016-3D-b5-3,Train,Validation,60,10,10,1,0,0.1,40,15,1,1E-05,0.001,0,0,98 98 54,2,5,1,1,64 128 256 512,instance,0 1 1 1 1,0 0 0 0 0,0 0 0 0 0,54,2,2,0,0 1 1 1 1,relu,1 1 1 1 1,6000 2000 500 200 1,0.5 0.5 0.5 0.5 0,1 1 1 1 0,0
exp-2016-3D-b5-4,Instancenorm--1-4--r6,3,./Ligity_Output/Ligity3D1-4,./tensorboard-runs/finalResults/2016/Ligity3D,exp-2016-3D-b5-4,Train,Validation,60,10,10,1,0,0.1,40,20,6,1E-05,0.001,0,0,98 98 54,2,5,1,1,64 128 256 512,instance,0 1 1 1 1,0 0 0 0 0,0 0 0 0 0,54,2,2,0,0 1 1 1 1,relu,1 1 1 1 1,6000 2000 500 200 1,0.5 0.5 0.5 0.5 0,1 1 1 1 0,0
exp-2016-3D-b5-5,Instancenorm--1-4--Cdrop0-1-all,3,./Ligity_Output/Ligity3D1-4,./tensorboard-runs/finalResults/2016/Ligity3D,exp-2016-3D-b5-5,Train,Validation,60,10,10,1,0,0.1,40,20,1,1E-05,0.001,0,0,98 98 54,2,5,1,1,64 128 256 512,instance,0 1 1 1 1,0 0.1 0.1 0.1 0.1,0 1 1 1 1,54,2,2,0,0 1 1 1 1,relu,1 1 1 1 1,6000 2000 500 200 1,0.5 0.5 0.5 0.5 0,1 1 1 1 0,0
exp-2016-3D-b5-6,Instancenorm--1-4--Cdrop0-2-all,3,./Ligity_Output/Ligity3D1-4,./tensorboard-runs/finalResults/2016/Ligity3D,exp-2016-3D-b5-6,Train,Validation,60,10,10,1,0,0.1,40,20,1,1E-05,0.001,0,0,98 98 54,2,5,1,1,64 128 256 512,instance,0 1 1 1 1,0 0.2 0.2 0.2 0.2,0 1 1 1 1,54,2,2,0,0 1 1 1 1,relu,1 1 1 1 1,6000 2000 500 200 1,0.5 0.5 0.5 0.5 0,1 1 1 1 0,0
exp-2016-3D-b5-7,Instancenorm--1-4--Cdrop0-1-mid,3,./Ligity_Output/Ligity3D1-4,./tensorboard-runs/finalResults/2016/Ligity3D,exp-2016-3D-b5-7,Train,Validation,60,10,10,1,0,0.1,40,20,1,1E-05,0.001,0,0,98 98 54,2,5,1,1,64 128 256 512,instance,0 1 1 1 1,0 0 0 0.1 0,0 0 0 1 0,54,2,2,0,0 1 1 1 1,relu,1 1 1 1 1,6000 2000 500 200 1,0.5 0.5 0.5 0.5 0,1 1 1 1 0,0
exp-2016-3D-b5-8,Instancenorm--1-6--Cdrop0-1-mid,3,./Ligity_Output/Ligity3D1-6,./tensorboard-runs/finalResults/2016/Ligity3D,exp-2016-3D-b5-8,Train,Validation,60,10,10,1,0,0.1,40,20,1,1E-05,0.001,0,0,98 98 54,2,5,1,1,64 128 256 512,instance,0 1 1 1 1,0 0 0 0.1 0,0 0 0 1 0,54,2,2,0,0 1 1 1 1,relu,1 1 1 1 1,6000 2000 500 200 1,0.5 0.5 0.5 0.5 0,1 1 1 1 0,0
exp-2016-3D-b5-9,Instancenorm--1-4--Cdrop0-2-mid,3,./Ligity_Output/Ligity3D1-4,./tensorboard-runs/finalResults/2016/Ligity3D,exp-2016-3D-b5-9,Train,Validation,60,10,10,1,0,0.1,40,20,1,1E-05,0.001,0,0,98 98 54,2,5,1,1,64 128 256 512,instance,0 1 1 1 1,0 0 0 0.2 0,0 0 0 1 0,54,2,2,0,0 1 1 1 1,relu,1 1 1 1 1,6000 2000 500 200 1,0.5 0.5 0.5 0.5 0,1 1 1 1 0,0
exp-2016-3D-b5-10,Instancenorm--1-4--Cdrop0-1-all-r6,3,./Ligity_Output/Ligity3D1-4,./tensorboard-runs/finalResults/2016/Ligity3D,exp-2016-3D-b5-10,Train,Validation,60,10,10,1,0,0.1,40,20,6,1E-05,0.001,0,0,98 98 54,2,5,1,1,64 128 256 512,instance,0 1 1 1 1,0 0.1 0.1 0.1 0.1,0 1 1 1 1,54,2,2,0,0 1 1 1 1,relu,1 1 1 1 1,6000 2000 500 200 1,0.5 0.5 0.5 0.5 0,1 1 1 1 0,0
